txHash,alchemy,blocknative,bloxroute
0xf9e387ee2a23c441483d20e3c965bbb12035ff84a6a039f15882b18d570ac89d,1550.1,203.6,0
0x5f94fc355da7767bcfa698fa47f433b8b5e4b07dd069f02296996f71a1c05740,1075.6,234.3,0
0xe50cf4911c029bd19edd606f23b50958feae743d51bb0c2b5f6425f4d1922f75,994.8,192.3,0
0xad9faa5aa59286e27096fdf58b0f836df9b2b0228d01ca9020fb3626edd6c4ea,1594.3,178.0,0
0x737f651d45f3e265bc19c7e9215c8b29d98e099452f5203303bfe91fb7d0d94c,1243.5,149.6,0
0xabbcae1558194a413ccecc3384db837509ecca5031c1677da5d7a788d301b844,2046.8,182.2,0
0xc68563abd52d309d5734bf7cb89c30bb8f6ecb33169994aa131d3381c24af55f,3012.5,190.3,0
0xcd801719e837be27a2262cf12a93b5b14d2a5e94d31eec437351e49f7d71e5ce,2878.4,183.8,0
0xf0e8fd6210fa2b214467ad4a4f24932643e0c4e03175da5c4cc79f9d5b4fe23c,2655.2,194.1,0
0xedcdac3725f90374c2df8e8a50b20290376a25d45ed5e83c91e14497ad31c886,1446.8,245.8,0
0xd7f58b648115613d31e29891d964d9ff379b3928b0912ad0f730dcd199a35ded,894.9,238.3,0
0x0da84a62d185d6b1bee1bf7e91a536e3e47b53b98ca8fdf43c5afdc5eb3b70c6,1882.4,471.8,0
0x7530b46264f6eebd6b4424d7a73f2b60f42010c4259f743191002fc7d7690216,1037.7,1673.8,0
0x9290566f2a793daab97408fbb1a00091d36241f3e870e2e30905b0fdc8d4943b,160.5,0,75.7
0x9428cf818a84def18b2b137d73beb68c438dd5a0c80c2dca9b419890d25224d1,617.4,0,488.8
0x8a7ae5b45a78806271aa5384f39f755c529d7d1293ee94b41c4d1a9fa4fb8cfd,1305.6,131.0,0
0x13065cda0dbd41a7f744156e0b35890ea18495a2847732baeeb824b186b0676c,557.1,54.9,0
0xf2eca118cb7f797acce5a5df2480c3e2d91a84e1fbcd90d6deefec64746783d7,1170.2,0,232.2
0xe49f3af8e17098bdf1a3f7aefea8273b6a07bf9c1c981f1fb5dc4f972eef61d1,775.7,159.5,0
0xe64f406521228f31db59be462783bdd8c25c36d40ccfee3f1112634dd3283092,3852.1,193.8,0
0x02a7fb503ffbf0d637a81d37d0876284f31820b0478182042b951583913cabc0,752.6,149.8,0
0x1e3c3696fcafd9560f4052f3ff375a6f330a56fa2f617bb010925ac21f16b628,849.4,135.2,0
0x56c14c1085d1b64503f369c35977c7f381f024df1006802bd113e55bdc3bfd45,1763.7,128.8,0
0x9a077c4de89ac5c4eaebbfe5e3e03583d824985800ce55187d24938ad01d3e60,895.3,119.8,0
0x9f57edf08d9652beb9ce05e768abf5a1872923c7affebcec27a7cc00aa7ed8ea,685.5,177.8,0
0x0bc9c69cd775d9eea5fcc0b4c84d8adfd4039431c07e7b0ddc266876baebc175,1434.2,181.5,0
0x5ca92c22debdc7abb7f69f47e737486b818a56d0020a6a6906503d13dd789e07,1339.0,183.9,0
0xc3aeaa22f4226a08022553ef746c62b0feefb694677a0f568603bc7e3626b0f6,2165.2,130.7,0
0x81afed127e04f524587648f4ea456ce89c3c3b670989126e7e37bc3f3819404a,1517.1,179.8,0
0xb69bbe67e4a1de099e3f29b81225d54359ff988a529229091a6c8946f9a086ef,1246.3,184.7,0
0x1ced5232e0103d94533d25e364e603187f4b7a08100d71f85b20bc8cb6e92ff4,1178.8,188.4,0
0xc907be67df79501e1d34261af3bd35e55c30d7e03e6e73091f933db0ad965d6f,2113.2,118.8,0
0xb464f0d4208f2eb3c059ec891b8a8bd6c1366bc13f47f230a318f2e68ac5365f,1005.9,188.1,0
0x7b0ab8dcd30a28079e38a2d64aebc086ec9ea09e876aa7a64dc541f1ba22a523,1608.0,157.5,0
0x4d88a7fadf306bcdc522d2ddfb71ab605fb6cbc01582f775ca23458990642552,1352.3,147.8,0
0xf21716a6792ae7a966746d201ad0df9e45f8348132bae731795ae8283a802701,1936.4,191.6,0
0x0e96fa83c6f6c93542c3cd668eec81fcf0ba72a913cd6255e65d60f311124602,1663.7,153.4,0
0xc37a2e35c4bc1e1245015a3fcf9d0ff7399ce1ed021e9bcaaa38fe485bd8831b,1374.5,212.4,0
0x79138e92eee8422633fc308550b72429496cc6fd4367566d244903fb5faa985c,918.7,439.9,0
0x01caaed8636d4328411a093bca7ca0d793f54d5921fc27f48db67322b767a9f5,1058.0,217.7,0
0xb1f343b6e45314dba2ba7c5f2d367ad4aa51296628c969e36d4697535c56eb34,817.8,118.0,0
0xfdec5538d12f5e240e5358565eb2dfc4d75794888f926ce6e40ca67c9108cd2f,2343.6,76.2,0
0xa8dffb2def4e48a9d7d225a3ab08521fdaa358d48fc174c4cf9c7a30abb83dc2,2049.4,194.7,0
0x608661a07285b8c765fba62855aba52e50321c628685a058f099cb8d3041d8c8,1637.9,70.0,0
0x4cac1ced8bf1b61ad48e32548b3cfe2a45ac5165713cc8bd634a13b3826ae214,1942.1,153.5,0
0x72c5764d10610aa63146b2d403a1def684671741390ac0562a3541aecf3ee757,993.0,176.6,0
0x66e04218ef7fe6503945d2bf26c1859947a1d7bab05762c51b31b64408bc0115,2369.8,226.1,0
0xd257321ed267403cdc32b9baf3b011b662c12f9f68788715b28f1811485fcc34,2277.4,193.0,0
0x42003f55c769e6da09e2d285364fcd61a2aa54924eae8345c19edd8cc08fac04,2883.2,205.8,0
0xe0db9017aa50e7baa98528bb9652012677d548fb83a25934b912db5fe3078391,2444.7,129.2,0
0xe0b1afb8600c5857b76b7019d6d7d78d2aad1ed6668dcb7dc3496fda834dd7a9,1896.6,169.2,0
0xd1fc74574226a8efdcd437c794d81e8b31f0d604bb130e373ee9279af4bc7a0d,1835.5,128.7,0
0xa81d36515799f693775c70671121ad74a78672fe08fa1546af3ac84e0ef06623,1751.7,222.0,0
0x40de26a18777805b0abf69f4b0c9d1cf3846d537e53ffde7b5514a8684975d7e,1442.8,195.5,0
0xe90308dcac44d7f0ba851f27a5620ba7ba3d0b5f69ec2481e8fdc117ed5a7fb0,1049.1,212.5,0
0xa8b4a383f5e8d89cff341a02d7bef9cc2bbc455cf33c3d2ce0a9ae2ac67d1e7b,1537.4,228.5,0
0x2e1f1108d2fa991f19c0ab76e287ba6e6fee258f8eadc6e8a8bc0796d95aca67,2369.5,138.5,0
0xf48e4a52e213de59565492e770696a1e3fa7f8184da1ac92675a6435a6b2610b,999.9,188.7,0
0x3d8c050a39132e9108cd0016b0115c24b1080a6334dcce49d89197c463628e78,1241.7,136.0,0
0x82be667cdbef7c386b05e1c1c5483744221fd2ff6dda7bd4214e4c1d41b4a208,2196.4,150.5,0
0x4f0a8d267230035489d8dd0241a9cf9041e5d3ca05475d03778764ccd81f977d,2922.3,169.5,0
0xe67ba65082e8595a3545318254000dd6182f53181c15cddbdbba2cfc103f5988,2543.3,172.0,0
0x283371038f021c71467381fc9af68e92ca7a4e02a879053e822c56d9ca9b3388,2417.2,202.2,0
0xbfd4e87aed9f47bc522981be4ebc8ae06a6f51bfc4c631e27a0f52ae0dcb82fc,1601.0,123.4,0
0xcd35686d435aa6e086669c2dcf10c1ab763fb0564ec129bef94f1614563e7bd6,1446.6,169.1,0
0xeb1d8598db75408a6db333618d88cd8c127d042a5ad57881c9a8eefcdc5a67e7,1768.9,200.4,0
0x5e37ee8fbbdfb936a2c7cf0444572a9f5e474523e2e60a667e37ac2861449aaf,1669.8,194.6,0
0xed83c613ade20248ea46df53109995501953f0256f8c9b2e000333f3e56d48b8,1426.0,174.5,0
0x6581e80d872b65ed3618afde4f84c9a8955277437837fba0ffd736f45239c25e,1067.9,162.9,0
0x25f0bb9eb25b7ad84c864214f71a95b6ce2858901e0788c7e71d84d60fd4aba7,1225.6,95.9,0
0xd45461798b91f09161ad8a548de8dff9c102c367a2d5c5c9b086429d148065c4,2174.5,158.4,0
0x225be98f51142562c16d82f790e426ebd418aae281b750ed4f6ff686a20ef67f,1483.5,235.1,0
0xfadc149d5928ba372f712afbf81eb338a5cf77fe17cb69328520c57a2b4a763b,3244.8,111.3,0
0x7209e0aa378c6f5a18685d949b2137b905c9ebc9a57b93fe5773e610ca2a3e09,1712.9,174.0,0
0x258cdf8fa7a3aa2a20f7511853160518a32a68ef32b87abd7b1c1ad8081bfb81,1065.3,193.4,0
0x341319c145df55ad38ba3cb005df96a5494c39747313f4cfc4de7d3b3658c485,2170.7,173.7,0
0x4d906a8ae2e28403dd29f88a409e8ee3a1306aa91aa15d188d6348bed70bd335,1795.0,139.1,0
0x0c08ddc48efc4f259feb530869977d10cb4c0724cc5260a6b956116f65e22e57,3143.7,184.6,0
0x34ddbd2c0668abc78f84accd02233395c3ca857dd00c0693b31e4461bec37d76,2719.7,156.9,0
0x68113d7e2f4782e72638f7442752e68501254d8fb7578158449143d2ea779e33,1681.8,120.5,0
0xa9673196a90d8372549544834ef1190cf06ee05e47acc582bd3923b49480ea73,1375.3,178.9,0
0xcc4622caed5eea0848cd6821c8b49e97e59fcd9144fc47a80f59c3365fe9879d,2140.9,172.9,0
0xab593573243f44945a6476b48f23c63ae26824d1e2c39b2e61636fc14440e4b3,1968.0,195.7,0
0x2ef45a2d75e1452b68e2e5c0b920de9ea25c9beb5eb3ec9a21b513ace7857fcd,1507.9,182.3,0
0x9761331332e62d1f283b5cca1dda1020c5bd381c884d545f2e1e80ca47e3652a,1349.6,191.6,0
0xe907d63c0b588fbaacee7c70bcb31e812b03cd938bae458267c7f64273fbac73,1018.8,88.1,0
0x60c6d2657692f30e69c9fffd94088d87fcf505aa0c297fa9981bd94f81834e32,1477.2,187.1,0
0x68445904fba25253cf30655260c8481aa1c6666cb1bb36b186ca9ace86299b84,1332.2,175.0,0
0x2538eb93b401ed7b558f2d3c13d1c619df4d94507d6689a67d5bc8ca27e50b56,1421.1,159.9,0
0x4cf593a7377970f1cb42e99190834185a775fface3952fc31a690d86011cf7ef,0,392.6,0
0xb0f893c227b684cacec5e8a1a4708dffbd43644a9a0e9046d2ccd028ec93af83,953.1,319.7,0
0xd6b42738afcb51867130548b44674426f83e0037e5888290775d77d0ed5fd60f,539.5,387.7,0
0xab4d779c226d993d28223fbcc50c4788381fa68286e7566eef3e8a6606bdbb00,1781.9,47.3,0
0x96b6244d241b80227ef4daa45c00c9a7345b2a6a36707bd630acb892ecdd23ce,665.9,1604.3,0
0xa1fa36cbacdefc9d9b65063404b2975291f4910ed53b16ec49b58bef43d85dae,831.5,518.9,0
0xca3bf821fc29ac8a9e354656f9824c886bb30b99a09a2f2022464164251a9acc,1213.3,25.0,0
0x3a726e6c997eb1d9f0784ee421e838d3ddae592c71cf3f5038cf75626425b87e,1892.5,133.7,0
0xd7c7468d537d30e43a0af3f5ea7a11b38d54200ccd05c94cbf72b41d0ec7ae87,532.7,203.2,0
0x8a1bef48cdba2a3f5fa505694c13bd74e9ebe941a8b9aedbb9894f77dd19627b,1446.4,193.3,0
0x55e924b4cc01596f8cefea8ccc3d43547d458932ea3cba784cd9bea730d28eb7,1296.7,195.2,0
0x7c4d40db600fa818e481b5d3c96e38cfe65564ecd6329af3bea417876054c20f,867.2,133.9,0
0x76867c23e71f0fa387ca6e029b4141d84c1443fa0d115106644159be5fb1757c,1971.8,194.0,0
0xaa6c2811db1ac09d1d5ac0d079e7f6589a101b753260fd66f999def51b7922ef,1169.4,185.8,0
0x6d125d24eea94aac969aefb1469213557451e18470855d40d4843384dd71bac5,1421.1,106.6,0
0x46620f374447fd3760c12943659604d6a6a344c8410c599ec5a31ed88b1b3fcf,1864.9,171.2,0
0x196a72adca9c540d76cf28ed515540a9624d4d0f13f8e9184420319fa16494b9,2220.9,215.6,0
0xfe140022539e70cdeb588925ff3593d3b37c8d3ff7c3db39cf312c893d9bc6b5,2062.0,162.2,0
0x5e3c847e102078e1e258972bee10dc36eff4037fdcb5e861d6052c4c5eca8e72,1671.3,40.4,0
0x6333bea3432221d02ddedc494ae7ebb8357778c1b7387d2eb0538e8ed8ea2af3,1217.2,183.8,0
0x4d4954fe4d61a738981377175aedbcc5ddf9135bf8e044d1ac242a4ddc5b3bf1,1848.6,167.3,0
0x0b329ea92166df4e2f65bbbf0d07d562bea495a10839f4ca48d55d61c73104bf,876.2,169.8,0
0xb324e79fe3ee287d287ee880dc55a7bfce438723c9553e021ecf757bb521fc24,380.0,385.6,0
0x8e77590cb52a38c4cc9be5d1da3196303637596e22cf84e4f2686ef443ad1db6,919.0,179.1,0
0xc21a58bf721060a35fd39d3d585a1e88a0c5ec7e2f412d05eb75a28622550e14,631.1,197.5,0
0x5bd1e9f3c191332b5a2bfe450a48a8d16e384203d9142ca93b636ad656791d15,1041.9,212.1,0
0xda94514743958b02d54f59a188111fcfb7379116ef191cf72cebdff1c4943499,428.4,16.7,0
0x130323e578e1bb5cfe21ec7d9459b24e36b6e954bdc7b97fa89915e448b40a4e,1240.9,193.5,0
0xdaf19aff2551899856d637540f7530b69a1314471c2f0ad1f5d0a9b45929ff09,1068.8,110.1,0
0x4a214140cf4b7abd69d89234a7b8a02460a307b2547e9ee9589a2bf8409ea820,1306.1,152.1,0
0x2f9efff024306fbc4d95ecd6128e62b9730841b1ceb0d29502a13e7901950f17,1343.2,116.7,0
0xe4beea4ce30f7bf4715837990351dd95365917d1c0f2c82e0da4bf1eb9c54eb3,631.1,139.3,0
0x3f4c91171a9dab5067db76c8fb5f5344e822bd097ecaab76e72b7864cfe025bb,1180.9,206.0,0
0x9bbe1d09d21a5306a2d32035d0765688360a4eea6e7def8d7e837867d91088a3,913.7,186.7,0
0x0ab213670f1bcbc731a33c90b0f10f20ed3d9387c498daa4b898b65225737661,1825.0,122.3,0
0xbe87bb960fa7153acdc6be124a07f9291b35393b4edde9f78e2e0d61ad646fde,1448.6,196.4,0
0x564fc853a4742f1a15e2fa101b59272a9b0eb8f54dfb19dad619ef9d008afdb7,1279.7,129.7,0
0xd7b5599c250d6e0f7f4038d88dd9dfe2e8a902910a101690e20880bb443dec2b,1769.5,187.9,0
0x9da0653fdeb4cb3ccbf8fb482b0096b1b449ad2fa2664089f9ebbd8b3b0a7d89,1592.6,169.3,0
0x0a9f3c43d5115e1e5aade508437a1787e0c6539f9f29ff304fcefeb844694f78,2939.8,161.1,0
0x28cfa98469fc087357d8023aa904ba1c0dd05017730f8a2119e3eaf12df82d8d,2272.6,153.1,0
0xe438e3fd57d38f9b2c7668cdc5c1d8243c99ba8e40bfad65aa1389a52af31352,1517.1,188.2,0
0x218f0df34c8c8ca26afc02be40deb8e50ff23caa214a3e69ee596fca60ab22b8,1260.4,149.8,0
0xd8ff0124f8956ec22d26e3b80dd6a3bdb25dd6e49c8ab86875afe71e97cdbc42,2405.3,151.9,0
0x6371d20c930247f11ab3b90d36e5ec9b128e028b203cff278eac309e0031cc44,1365.9,143.3,0
0xbc8c783fd4a2983db922731c064a0055547c3a78c4d4da47ca5234f1caf51747,1182.0,171.5,0
0xde0752084236c4c64e7171dfb65ec35eedf6c9ca72a6c84af69a75aa8ce5a9a8,1426.4,170.2,0
0xea196c44356f9ee279c264fc72cbdf3093f043ec9e6b6903fb8c0f6565fdea8f,465.9,0,18.5
0x30eb2ad3c8276134d1c8c790d00cf22d991a20e963509b920ea0410feadbe685,832.2,0,131.6
0x81bc680c360826c5ef23aa43168ccb85605dffe809033933afd5af9f542cb9ba,703.4,0,238.7
0x35701169b673f134d36b399c8794c254abea06439a4fe581b51f49215d39b04c,1204.2,0,141.8
0x0d10d572673da9c37bc85dea5dac922ac567194d15a5520ce329a81ba082c159,1099.0,153.0,0
0x787a88c288060510e371dcf1c1bde53f85b3f20d9e8ea46f81bb3ef8332da40c,928.0,172.7,0
0x7a927b9ee825287875b22497c18e2d675d2896e8d0e09db2fb53cb7a2bb0fc4c,1506.4,167.5,0
0x184c69872ee18a68628ce7179ecead7601bac44f2133878d1594edfbfa9a55b6,1245.4,174.1,0
0xc16fd4c8a9d7d345116b798ce76a8577afd2563ec54bcb213926b4240029443b,1134.0,173.2,0
0xf6a24446938a0d21974e59c7a1fc5d4ffbeeea9c7e9790467b451c9a6db75de3,705.3,197.7,0
0xb6cab6f5f3be50270b5824e33262708b133efc3abba973b06433ce6774bff12a,2794.6,221.5,0
0x4e162fb18d87307617de7fc93a1b9855fac10a6695204b0873973b7ab5dfb29b,2314.9,92.9,0
0x3464c8f779724039fb29f74f7e2c799a22e5315d1b32c22289cf306255f20a75,2918.1,200.7,0
0x7058dadc562956016013349a01e33b97fc6dd19e472cc84a5894fad887a9e70b,2771.4,186.5,0
0x2d946902433012a04d3429ff56eb8b65e684414a7204849bcca0d912f98c6a32,2583.6,98.3,0
0x0a39b3838d9044d763468688a9193b64dac25221164eabf237b7b54613467307,2534.1,183.5,0
0x48fc67f4f575cf536cc38af0869bdd187848713904ad0402a2c49287f626301a,2249.6,182.3,0
0x39182e223ce2d6e2a9e68e1b63c2d3a65c99503604f936b9a06ca5c603a4edf3,2110.2,101.3,0
0x3c06e62899f02efe1b2ec3f3234a9e63a74e0776bfa80bc4849dd2ef7e179a24,2803.2,152.0,0
0x681c03437ecc26aaf7e782799ca35d466b9820c591c57b23615fa6826e64252b,1269.0,175.2,0
0x78ff346692fd856dd782665ee5e7a3a7ddbbb82ebc0995e13cf833c2551024f9,2475.8,108.9,0
0x71db8b883e9e0ad135507ac066107e5b22ee3c85242bdbaa4a183ffe9f72ee0d,1222.4,184.4,0
0x0b2bc8a50af4caf618b13e4e4753edbc8b023bb5b13c8bdcd93f17c7c25ece0b,2175.3,195.2,0
0x8a043a35d8773574734e1879677408449da22bb5e60115d03e2e9e5fc9acb7f9,2036.8,155.5,0
0xa2281e3f48dd282618cf643274afb3a144c04ce2481fe0a2fc092e54765b4768,1464.6,153.5,0
0xb41e43c26c887a8080b9e22517a75212b8292c59e204676026b953ee65d51dd3,956.5,190.1,0
0x641fef7bc6ab4b42a252a322d65553f291432cdf9d319f17249cf05b0e4a1763,2822.7,141.9,0
0x020ceb1288053a86fc0d2da0336bc4ea1b682d4a58494f6bdb14c2d581243cc9,1905.2,142.7,0
0x8e8bacc9d2f0b6ff1051a4eed182a5d31b3cb1cee580036f74d6b309e63e01ac,2451.9,129.6,0
0xa615094c91e3eefcf6e826d326f273f208c910e2c7480f3334dbb24e6f465f29,2276.0,157.8,0
0x5cbe2c7c697e66dc493e354440753ff31631f5826fd37cbf563a9a7ec1aac744,1109.3,169.7,0
0xa739c1941ea66818b236074654b5b5ce5a3dee0081b01048cbe1e2e74b1be27e,1339.0,176.8,0
0x113cad6d00c811e8eabacede7ad831cea2d49e950fdfe27c99bd922128ffac7a,1029.2,152.8,0
0xbd5cdd1c918f141b1437893a5b8f1d03d3e8015dd0f205d1a881eea3bf56d095,2383.4,166.8,0
0xb4d03f9be0269d31749bbf14855ba5f8eb4bda6d5ff89bbf804b8eda25653c39,1696.9,167.7,0
0x1072dd13de47859563caaee22b9c83683e2c6e7407fcd18c3e32ae8b3c52a18b,1213.8,203.9,0
0xdc38fc2680633f6a95fecf80b38d0f568e5e870070e9146af715d3f0c78dbfc1,0,375.4,0
0x33974261a1d0a1dbe7aff7d455b3f91d8f846a305cc4cf293e1f336d5b227599,1964.1,144.6,0
0x44cf4ecdcdfad9fdc8ba10a0d80e332647b27a2ed68a1ad9f4d19ae90da50212,925.4,1013.2,0
0x6eccb3e2f0ed4679508477c154e866f738b3852cfdbdc6a6b527af563e129865,3156.6,243.9,0
0xb081032b3401cab3293ea9d733ab71b9a15afbc729e1b9fa023954f4d6ea980c,3125.4,227.3,0
0x083bd0dcd87ed9fb0bdc9f49a3124eaa7bf8433df8d4e95dc262251137a173dd,1772.0,23.0,0
0xa11c5588619f33e3701adc13a311833e8604e117829bd78710822da3876dc3ef,857.8,130.4,0
0xc260211bf482444542fc0ab2e01e46e0c4d0e9c6023ccc9598cd96fa620306c8,1679.9,130.6,0
0x5cbf69e78c875a211e7b4712a8a46d9f39f3e55d3fb7cfc9d63daddaaf912e27,1295.4,103.0,0
0x2d77d0f98d9680822a1e9991173ee61f65c75606147efde7f9672a32a23a8034,2837.0,185.8,0
0x0996b4969ef31b4dc618b61e8ecb57eeca0c3bf1921215050f964c863a5e4216,1444.4,137.8,0
0x3f44108a9d936fdc437906fea38a0fc58bdaca36cf0a27208d44fddf84d9a1c3,818.1,196.2,0
0xd68b731f4df255eb63d9bd8b22f738b3d37466bfe68f0cc8248bc71ed39025aa,659.7,143.6,0
0x2862b29b5b3f206fb47e590008f7e8410d5cb06de2e280b4ea34be31850735c3,1346.8,195.3,0
0x7f3b4dbad1824a4c3895cef18617ab685e932c914370cfa8b05001c55778dee9,1143.5,175.1,0
0xd53165d8f5c07eca8ea2992e3248a8db25e64264adc5f6607b330de2f1b6ebe8,0,165.2,0
0x274db13d8d9b5aff52c7e2534a881ad43348c183eeca70f69b091d792116546a,1555.0,150.4,0
0x0ddf33181f03dbb90352188aaa6aeed93a55544b79fe633aabc4ac4065e59031,1496.6,191.1,0
0xc8b50182860689bdd79a2556fb9f314f6695d61821dbfdc5f5696ce32d4f7f96,1368.4,172.8,0
0xfbd97e02b2bd4b3cd85033cffbabd42bad9308e51de88ab61d052c5c23e69409,2552.9,137.8,0
0xc8a0f480d9f022df6ac26a309683db85b4cb8946ad24af25100b9844018311ac,3010.0,174.7,0
0xcbc8a48f18e2124cdcc12a2fbf251a011e139b7f6ee3cd18a8f33f3408576dfc,2590.8,239.6,0
0x1c1e722d7ec79edcef3842b2dc2d998d76d193dbc5637503da0a04b220082433,1093.2,191.6,0
0x5c47fe9792920ced04e668f392683e23e6150e7d1012438989652ffd1326c363,2212.4,272.2,0
0x995328e70aa67e5365b6790cdd5c901e268ffefe56df44c86ac40c9b457f100c,1202.0,226.3,0
0xae435419b1ced1341b508430a0f8e3139fae9ba8698ce316e5f03e3423d5239b,1519.4,181.9,0
0xd6741a74f4c0251fb95eda8952916c02af4d5a0aa80b0c4566a1800efa37a070,1276.1,133.7,0
0x547a73e72fa6b2c17850f0b2337ef2a3f0bf9eab657e7158ffe534aa88388794,799.3,82.7,0
0xed14fb6ee49a74787805a236c4e8192f37359f46872bd4de77a340e325449ac8,1245.3,117.3,0
0x14a9b9edc2e596609be3bb5355da4c9925c94744668cd2c06fda637f3a4b8be9,3194.8,151.8,0
0xdfd32d49514ccf0495045a87723d5a45c97b6684ef7ae5d0bb38ef3d89acddad,2771.6,161.7,0
0xaeea5925c33a4bb1094ef9136957ba82b1a610928e287e0159458170221f3434,2572.9,176.3,0
0x9a16d01cad50119eab81f69a501f04f7bf70264c9734e0734d04a561b42e36dc,2483.4,148.8,0
0x4561d09358f1b597c8c1d3ad19765945253729d9155f4627fa082f66305c028f,0,169.0,0
0xffae449124fda4f85fe5ee2d13e9bf21a5ab5bef931fcd6d678258a493262c67,0,165.7,0
0x8e6e688ece38df4944ce0209c0bce59a0d73d422ab610df8c66796e4e672bacf,557.7,217.8,0
0x93dc49a92cf6f799987cdb0fe8d2672120967c901a1188e51fe84168439ba44c,684.6,237.2,0
0x3baa03ed62cc4ab2faf54fbbd9a3ebcd0cd3a064e73c3718cd981f48b9fefcb9,843.5,199.0,0
0xa905139547b67a7f826126683c1dda1c4b9d5042c6d4aacf8b13650833374e89,719.8,199.8,0
0x2aa30cf469b63fdb3d2a127816560c43c5fffab5e75862512c49823e42fab30a,675.8,170.9,0
0x66b77f072fe479bd7ed036399fe7ffd974371971408ac95992440bacb3ebd662,2576.6,157.3,0
0x9fd0f1d43f6d450532a4dd29f1d74c21970b9e397f37b217b07349f1ca603700,1961.3,150.1,0
0xc9e4780c651c546e46629bed0b02786e814b419939552600de5cfe6eeeacd860,1570.0,130.9,0
0xa6d581f83147576a2b277eeee9511e3dc25585eaf2238a7367f93bd105976912,2368.3,167.0,0
0xab9acf7bd2ea48d88fe4574542e96820982faa89f7e9e0d74cdfc4f4246f429d,1539.0,97.5,0
0xee6b253d45cccae8af6db03718aea793c54fe431673c64e0c490e85ad9327ee4,1680.8,135.0,0
0x537fdea8498120a6479280b79a8b16a4fef4ea114e8315343a913157f7d3d806,1238.0,204.8,0
0xe055f792701195c7c6e839cf78141a37d2eb217cfa14992cf0e70c1ea8d8dc37,1127.1,142.9,0
0xe6c79a62b5e112338d7f259d68840904f0f94ad7f6635b60ee434ef11701e025,1622.3,122.7,0
0xc04f71848a379c44b2f3f20f3d42f35715f77d8265cc4c46a06f226bd433d30c,1609.1,176.7,0
0x25ed18461a28c0c9231c0ef091ba6131c8fb9cf232117900b768737f942e3010,1169.4,164.1,0
0xca843bce37f2b35760b7bc11bbdd5eda4ec14a065b441d6794ffd510e890eebd,1918.2,142.5,0
0x472fa07fd60f961a048c770499645d488cd4e6ac8561b39c9b69fc281087bcd2,902.4,199.3,0
0x58a01d8f68a93c8fae89427ec0d62d42616c5dfbb6e01b46054090a4eb7f79fb,2570.6,169.2,0
0x03958c2f5d8aaa6dc89f8023fb9672b36125e3090adddd92c04f1e52c4af9013,1566.8,187.2,0
0xb9818a13f53506f9ddead36a339d32122b37672b257f70033e4150fe36091945,1454.9,165.5,0
0xe841be031d6e24a4ad63333bada538cc2bed1a895c2b67ac1bca6f1086fd7fca,2175.1,142.8,0
0x31885e01dcfeff2f012152bad540c2581345014199ef3e32ebc78205a6886064,1146.2,220.0,0
0x53f3070865caf9b60dd53c4e23fa901324a6f5b16dde41f42efa658424fa3320,2336.0,142.0,0
0xbe2b0a22b87fbd8ba73878172867d5fea20d9309a0f1e25fc0f185109dd56032,1704.7,142.4,0
0xa7350c5915fb582a95a57a143d83d461938b1520babd2d69ca060c3f8ac8aad0,2518.7,145.5,0
0xa82091acb884d149ea3a9e91bfb9b09dc142ab09a807d114fb10891456208ad5,139.1,587.6,0
0x897f32247719c1eb20b62bfc9fecdbce85fbc8defe179a30540e3c2256200dc1,729.6,157.4,0
