[
	{
		"anonymous": false,
		"inputs": [
			{
				"indexed": false,
				"internalType": "uint8",
				"name": "code",
				"type": "uint8"
			}
		],
		"name": "Event_LogCode",
		"type": "event"
	},
	{
		"anonymous": false,
		"inputs": [
			{
				"indexed": false,
				"internalType": "uint8",
				"name": "code",
				"type": "uint8"
			},
			{
				"indexed": false,
				"internalType": "uint256",
				"name": "value",
				"type": "uint256"
			}
		],
		"name": "Event_LogCodeWithValue",
		"type": "event"
	},
	{
		"inputs": [
			{
				"internalType": "uint256",
				"name": "profitToShare",
				"type": "uint256"
			},
			{
				"internalType": "address",
				"name": "token",
				"type": "address"
			}
		],
		"name": "shareProfitWithKeeperDAO",
		"outputs": [],
		"stateMutability": "nonpayable",
		"type": "function"
	},
	{
		"inputs": [
			{
				"internalType": "uint256",
				"name": "tokensToReturn",
				"type": "uint256"
			},
			{
				"internalType": "address",
				"name": "token",
				"type": "address"
			}
		],
		"name": "shareProfitWithKeeperDAOCallback",
		"outputs": [],
		"stateMutability": "nonpayable",
		"type": "function"
	},
	{
		"inputs": [
			{
				"internalType": "uint256[]",
				"name": "quoteTokensToSpendArray",
				"type": "uint256[]"
			},
			{
				"internalType": "uint256",
				"name": "quoteToken_encoded",
				"type": "uint256"
			},
			{
				"internalType": "uint256",
				"name": "maxQuoteTokenTradeLossAcceptable",
				"type": "uint256"
			},
			{
				"internalType": "uint256[][]",
				"name": "checkCallDataArrays_encoded",
				"type": "uint256[][]"
			},
			{
				"internalType": "uint256[]",
				"name": "tradeCallDataArray_encoded",
				"type": "uint256[]"
			},
			{
				"internalType": "bool",
				"name": "doTradeWithinFlashLoan",
				"type": "bool"
			}
		],
		"name": "tradeSimpleRequirements",
		"outputs": [],
		"stateMutability": "nonpayable",
		"type": "function"
	},
	{
		"inputs": [
			{
				"internalType": "uint256",
				"name": "borrowedQuoteTokens",
				"type": "uint256"
			},
			{
				"internalType": "address",
				"name": "quoteToken",
				"type": "address"
			},
			{
				"internalType": "uint256[][]",
				"name": "exchangeSpecificTradeCallDataArrays",
				"type": "uint256[][]"
			},
			{
				"internalType": "bool",
				"name": "doWrapEthBeforeFirstTrade",
				"type": "bool"
			},
			{
				"internalType": "bool",
				"name": "doUnwrapEthAfterLastTrade",
				"type": "bool"
			}
		],
		"name": "tradeWithinFlashLoan",
		"outputs": [],
		"stateMutability": "nonpayable",
		"type": "function"
	},
	{
		"inputs": [
			{
				"internalType": "uint256",
				"name": "quoteTokenQuantity",
				"type": "uint256"
			},
			{
				"internalType": "address",
				"name": "quoteToken",
				"type": "address"
			},
			{
				"internalType": "uint256[][]",
				"name": "exchangeSpecificTradeCallDataArrays",
				"type": "uint256[][]"
			},
			{
				"internalType": "bool",
				"name": "doWrapEthBeforeFirstTrade",
				"type": "bool"
			},
			{
				"internalType": "bool",
				"name": "doUnwrapEthAfterLastTrade",
				"type": "bool"
			}
		],
		"name": "tradeWithoutFlashLoan",
		"outputs": [],
		"stateMutability": "nonpayable",
		"type": "function"
	}
]