[
	{
		"constant": true,
		"inputs": [],
		"name": "ninjaUtilityAddress",
		"outputs": [
			{
				"name": "",
				"type": "address"
			}
		],
		"payable": false,
		"stateMutability": "view",
		"type": "function"
	},
	{
		"constant": true,
		"inputs": [],
		"name": "zrxV2ExchangeContract",
		"outputs": [
			{
				"name": "",
				"type": "address"
			}
		],
		"payable": false,
		"stateMutability": "view",
		"type": "function"
	},
	{
		"constant": false,
		"inputs": [
			{
				"name": "etherToSpend",
				"type": "uint256"
			},
			{
				"name": "expectedTokensToTrade",
				"type": "uint256"
			},
			{
				"name": "maxBancorBntQuantityAcceptable",
				"type": "uint256"
			},
			{
				"name": "minKyberRateAcceptable",
				"type": "uint256"
			},
			{
				"name": "addressArray",
				"type": "address[]"
			}
		],
		"name": "tradeSimpleRequirements_buyOnBancorSellOnKyber",
		"outputs": [],
		"payable": false,
		"stateMutability": "nonpayable",
		"type": "function"
	},
	{
		"constant": false,
		"inputs": [
			{
				"components": [
					{
						"name": "makerAddress",
						"type": "address"
					},
					{
						"name": "takerAddress",
						"type": "address"
					},
					{
						"name": "feeRecipientAddress",
						"type": "address"
					},
					{
						"name": "senderAddress",
						"type": "address"
					},
					{
						"name": "makerAssetAmount",
						"type": "uint256"
					},
					{
						"name": "takerAssetAmount",
						"type": "uint256"
					},
					{
						"name": "makerFee",
						"type": "uint256"
					},
					{
						"name": "takerFee",
						"type": "uint256"
					},
					{
						"name": "expirationTimeSeconds",
						"type": "uint256"
					},
					{
						"name": "salt",
						"type": "uint256"
					},
					{
						"name": "makerAssetData",
						"type": "bytes"
					},
					{
						"name": "takerAssetData",
						"type": "bytes"
					}
				],
				"name": "order",
				"type": "tuple"
			},
			{
				"name": "takerAssetFillAmount",
				"type": "uint256"
			},
			{
				"name": "signature",
				"type": "bytes"
			}
		],
		"name": "tradeTokensOn0xv2",
		"outputs": [
			{
				"components": [
					{
						"name": "makerAssetFilledAmount",
						"type": "uint256"
					},
					{
						"name": "takerAssetFilledAmount",
						"type": "uint256"
					},
					{
						"name": "makerFeePaid",
						"type": "uint256"
					},
					{
						"name": "takerFeePaid",
						"type": "uint256"
					}
				],
				"name": "fillResults",
				"type": "tuple"
			}
		],
		"payable": false,
		"stateMutability": "nonpayable",
		"type": "function"
	},
	{
		"constant": false,
		"inputs": [],
		"name": "withdrawAllEther",
		"outputs": [],
		"payable": false,
		"stateMutability": "nonpayable",
		"type": "function"
	},
	{
		"constant": true,
		"inputs": [],
		"name": "bntContract",
		"outputs": [
			{
				"name": "",
				"type": "address"
			}
		],
		"payable": false,
		"stateMutability": "view",
		"type": "function"
	},
	{
		"constant": true,
		"inputs": [],
		"name": "kyberEthTokenAddress",
		"outputs": [
			{
				"name": "",
				"type": "address"
			}
		],
		"payable": false,
		"stateMutability": "view",
		"type": "function"
	},
	{
		"constant": false,
		"inputs": [
			{
				"name": "amount",
				"type": "uint256"
			}
		],
		"name": "withdrawEther",
		"outputs": [],
		"payable": false,
		"stateMutability": "nonpayable",
		"type": "function"
	},
	{
		"constant": true,
		"inputs": [],
		"name": "gasTokenAddress",
		"outputs": [
			{
				"name": "",
				"type": "address"
			}
		],
		"payable": false,
		"stateMutability": "view",
		"type": "function"
	},
	{
		"constant": false,
		"inputs": [
			{
				"name": "code",
				"type": "uint8"
			},
			{
				"name": "value",
				"type": "uint256"
			}
		],
		"name": "logCodeWithValue_ifEnabled",
		"outputs": [],
		"payable": false,
		"stateMutability": "nonpayable",
		"type": "function"
	},
	{
		"constant": true,
		"inputs": [],
		"name": "wethContract",
		"outputs": [
			{
				"name": "",
				"type": "address"
			}
		],
		"payable": false,
		"stateMutability": "view",
		"type": "function"
	},
	{
		"constant": false,
		"inputs": [
			{
				"name": "user",
				"type": "address"
			}
		],
		"name": "whitelistUser",
		"outputs": [],
		"payable": false,
		"stateMutability": "nonpayable",
		"type": "function"
	},
	{
		"constant": false,
		"inputs": [
			{
				"name": "code",
				"type": "uint8"
			}
		],
		"name": "logCode_ifEnabled",
		"outputs": [],
		"payable": false,
		"stateMutability": "nonpayable",
		"type": "function"
	},
	{
		"constant": false,
		"inputs": [
			{
				"name": "etherToSpend",
				"type": "uint256"
			},
			{
				"name": "minBancorBntQuantityAcceptable",
				"type": "uint256"
			},
			{
				"name": "minKyberRateAcceptable",
				"type": "uint256"
			},
			{
				"name": "addressArray",
				"type": "address[]"
			}
		],
		"name": "tradeSimpleRequirements_buyOnKyberSellOnBancor",
		"outputs": [],
		"payable": false,
		"stateMutability": "nonpayable",
		"type": "function"
	},
	{
		"constant": false,
		"inputs": [
			{
				"name": "msgValue",
				"type": "uint256"
			},
			{
				"name": "bancorConverterContract",
				"type": "address"
			},
			{
				"name": "_path",
				"type": "address[]"
			},
			{
				"name": "_amount",
				"type": "uint256"
			},
			{
				"name": "_minReturn",
				"type": "uint256"
			},
			{
				"name": "_block",
				"type": "uint256"
			},
			{
				"name": "_v",
				"type": "uint8"
			},
			{
				"name": "_r",
				"type": "bytes32"
			},
			{
				"name": "_s",
				"type": "bytes32"
			}
		],
		"name": "tradeTokensOnBancor",
		"outputs": [
			{
				"name": "",
				"type": "uint256"
			}
		],
		"payable": false,
		"stateMutability": "nonpayable",
		"type": "function"
	},
	{
		"constant": false,
		"inputs": [
			{
				"name": "gasTokens",
				"type": "uint256"
			}
		],
		"name": "freeGasTokens",
		"outputs": [
			{
				"name": "success",
				"type": "bool"
			}
		],
		"payable": false,
		"stateMutability": "nonpayable",
		"type": "function"
	},
	{
		"constant": false,
		"inputs": [
			{
				"name": "msgValue",
				"type": "uint256"
			},
			{
				"name": "src",
				"type": "address"
			},
			{
				"name": "srcAmount",
				"type": "uint256"
			},
			{
				"name": "dest",
				"type": "address"
			},
			{
				"name": "maxDestAmount",
				"type": "uint256"
			},
			{
				"name": "minConversionRate",
				"type": "uint256"
			},
			{
				"name": "walletId",
				"type": "address"
			}
		],
		"name": "tradeTokensOnKyber",
		"outputs": [
			{
				"name": "",
				"type": "uint256"
			}
		],
		"payable": false,
		"stateMutability": "nonpayable",
		"type": "function"
	},
	{
		"constant": false,
		"inputs": [
			{
				"name": "_killOneContractPerThisManyUnitsOfGasExpectedToSpendInTx",
				"type": "uint256"
			},
			{
				"name": "_gasPriceThresholdForSpendingGasTokens",
				"type": "uint256"
			}
		],
		"name": "setGasProperties",
		"outputs": [],
		"payable": false,
		"stateMutability": "nonpayable",
		"type": "function"
	},
	{
		"constant": false,
		"inputs": [
			{
				"name": "token",
				"type": "address"
			},
			{
				"name": "amount",
				"type": "uint256"
			}
		],
		"name": "withdrawToken",
		"outputs": [],
		"payable": false,
		"stateMutability": "nonpayable",
		"type": "function"
	},
	{
		"constant": false,
		"inputs": [
			{
				"name": "_token",
				"type": "address"
			},
			{
				"name": "_spender",
				"type": "address"
			},
			{
				"name": "_value",
				"type": "uint256"
			}
		],
		"name": "ensureAllowance",
		"outputs": [],
		"payable": false,
		"stateMutability": "nonpayable",
		"type": "function"
	},
	{
		"constant": true,
		"inputs": [],
		"name": "Version",
		"outputs": [
			{
				"name": "",
				"type": "string"
			}
		],
		"payable": false,
		"stateMutability": "view",
		"type": "function"
	},
	{
		"constant": true,
		"inputs": [],
		"name": "kyberProxyContract",
		"outputs": [
			{
				"name": "",
				"type": "address"
			}
		],
		"payable": false,
		"stateMutability": "view",
		"type": "function"
	},
	{
		"constant": false,
		"inputs": [
			{
				"name": "gasTokens",
				"type": "uint256"
			}
		],
		"name": "mintGasTokens",
		"outputs": [],
		"payable": false,
		"stateMutability": "nonpayable",
		"type": "function"
	},
	{
		"constant": false,
		"inputs": [],
		"name": "deposit",
		"outputs": [],
		"payable": true,
		"stateMutability": "payable",
		"type": "function"
	},
	{
		"constant": true,
		"inputs": [],
		"name": "killOneContractPerThisManyUnitsOfGasExpectedToSpendInTx",
		"outputs": [
			{
				"name": "",
				"type": "uint256"
			}
		],
		"payable": false,
		"stateMutability": "view",
		"type": "function"
	},
	{
		"constant": false,
		"inputs": [
			{
				"name": "_ninjaUtilityAddress",
				"type": "address"
			},
			{
				"name": "_kyberProxyContract",
				"type": "address"
			},
			{
				"name": "_wethContract",
				"type": "address"
			},
			{
				"name": "_zrxV2ExchangeContract",
				"type": "address"
			},
			{
				"name": "_kyberEthTokenAddress",
				"type": "address"
			},
			{
				"name": "_bancorsWrappedEtherAddress",
				"type": "address"
			},
			{
				"name": "_bntContract",
				"type": "address"
			},
			{
				"name": "_gasTokenAddress",
				"type": "address"
			}
		],
		"name": "setAddresses",
		"outputs": [],
		"payable": false,
		"stateMutability": "nonpayable",
		"type": "function"
	},
	{
		"constant": true,
		"inputs": [],
		"name": "gasPriceThresholdForSpendingGasTokens",
		"outputs": [
			{
				"name": "",
				"type": "uint256"
			}
		],
		"payable": false,
		"stateMutability": "view",
		"type": "function"
	},
	{
		"constant": true,
		"inputs": [],
		"name": "doLogEvents",
		"outputs": [
			{
				"name": "",
				"type": "bool"
			}
		],
		"payable": false,
		"stateMutability": "view",
		"type": "function"
	},
	{
		"constant": false,
		"inputs": [
			{
				"name": "_doLogEvents",
				"type": "bool"
			}
		],
		"name": "setDoLogTradingEvents",
		"outputs": [],
		"payable": false,
		"stateMutability": "nonpayable",
		"type": "function"
	},
	{
		"constant": false,
		"inputs": [
			{
				"name": "amount",
				"type": "uint256"
			}
		],
		"name": "wrapEther",
		"outputs": [],
		"payable": true,
		"stateMutability": "payable",
		"type": "function"
	},
	{
		"constant": true,
		"inputs": [],
		"name": "bancorsWrappedEtherAddress",
		"outputs": [
			{
				"name": "",
				"type": "address"
			}
		],
		"payable": false,
		"stateMutability": "view",
		"type": "function"
	},
	{
		"constant": false,
		"inputs": [
			{
				"name": "user",
				"type": "address"
			}
		],
		"name": "blacklistUser",
		"outputs": [],
		"payable": false,
		"stateMutability": "nonpayable",
		"type": "function"
	},
	{
		"constant": false,
		"inputs": [
			{
				"name": "amount",
				"type": "uint256"
			}
		],
		"name": "unwrapEther",
		"outputs": [],
		"payable": false,
		"stateMutability": "nonpayable",
		"type": "function"
	},
	{
		"inputs": [],
		"payable": true,
		"stateMutability": "payable",
		"type": "constructor"
	},
	{
		"payable": true,
		"stateMutability": "payable",
		"type": "fallback"
	},
	{
		"anonymous": false,
		"inputs": [
			{
				"indexed": false,
				"name": "code",
				"type": "uint8"
			}
		],
		"name": "Event_LogCode",
		"type": "event"
	},
	{
		"anonymous": false,
		"inputs": [
			{
				"indexed": false,
				"name": "code",
				"type": "uint8"
			},
			{
				"indexed": false,
				"name": "value",
				"type": "uint256"
			}
		],
		"name": "Event_LogCodeWithValue",
		"type": "event"
	}
]