[
	{
		"constant": false,
		"inputs": [
			{
				"name": "bancorConverterContract",
				"type": "address"
			},
			{
				"name": "zrxV2ExchangeContract",
				"type": "address"
			},
			{
				"name": "wethContract",
				"type": "address"
			},
			{
				"name": "addressArray",
				"type": "address[]"
			},
			{
				"name": "fromAssetData",
				"type": "bytes"
			},
			{
				"name": "toAssetData",
				"type": "bytes"
			},
			{
				"name": "path_Bancor",
				"type": "address[]"
			},
			{
				"components": [
					{
						"name": "makerAddress",
						"type": "address"
					},
					{
						"name": "takerAddress",
						"type": "address"
					},
					{
						"name": "feeRecipientAddress",
						"type": "address"
					},
					{
						"name": "senderAddress",
						"type": "address"
					},
					{
						"name": "makerAssetAmount",
						"type": "uint256"
					},
					{
						"name": "takerAssetAmount",
						"type": "uint256"
					},
					{
						"name": "makerFee",
						"type": "uint256"
					},
					{
						"name": "takerFee",
						"type": "uint256"
					},
					{
						"name": "expirationTimeSeconds",
						"type": "uint256"
					},
					{
						"name": "salt",
						"type": "uint256"
					},
					{
						"name": "makerAssetData",
						"type": "bytes"
					},
					{
						"name": "takerAssetData",
						"type": "bytes"
					}
				],
				"name": "order",
				"type": "tuple"
			},
			{
				"name": "signature",
				"type": "bytes"
			},
			{
				"name": "amountToConvert_Bancor",
				"type": "uint256"
			}
		],
		"name": "tradeSafe_buyOnBancorSellOn0xv2",
		"outputs": [],
		"payable": false,
		"stateMutability": "nonpayable",
		"type": "function"
	},
	{
		"constant": false,
		"inputs": [
			{
				"name": "bancorConverterContract",
				"type": "address"
			},
			{
				"name": "kyberProxyContract",
				"type": "address"
			},
			{
				"name": "addressArray",
				"type": "address[]"
			},
			{
				"name": "path_Bancor",
				"type": "address[]"
			},
			{
				"name": "path_Kyber",
				"type": "address[]"
			},
			{
				"name": "amountToConvert_Kyber",
				"type": "uint256"
			}
		],
		"name": "tradeSafe_buyOnKyberSellOnBancor",
		"outputs": [],
		"payable": false,
		"stateMutability": "nonpayable",
		"type": "function"
	},
	{
		"constant": true,
		"inputs": [],
		"name": "NinjaUtilityAddress",
		"outputs": [
			{
				"name": "",
				"type": "address"
			}
		],
		"payable": false,
		"stateMutability": "view",
		"type": "function"
	},
	{
		"constant": false,
		"inputs": [],
		"name": "withdrawAllEther",
		"outputs": [],
		"payable": false,
		"stateMutability": "nonpayable",
		"type": "function"
	},
	{
		"constant": false,
		"inputs": [
			{
				"name": "bancorConverterContract",
				"type": "address"
			},
			{
				"name": "zrxV2ExchangeContract",
				"type": "address"
			},
			{
				"name": "wethContract",
				"type": "address"
			},
			{
				"name": "path_Bancor",
				"type": "address[]"
			},
			{
				"components": [
					{
						"name": "makerAddress",
						"type": "address"
					},
					{
						"name": "takerAddress",
						"type": "address"
					},
					{
						"name": "feeRecipientAddress",
						"type": "address"
					},
					{
						"name": "senderAddress",
						"type": "address"
					},
					{
						"name": "makerAssetAmount",
						"type": "uint256"
					},
					{
						"name": "takerAssetAmount",
						"type": "uint256"
					},
					{
						"name": "makerFee",
						"type": "uint256"
					},
					{
						"name": "takerFee",
						"type": "uint256"
					},
					{
						"name": "expirationTimeSeconds",
						"type": "uint256"
					},
					{
						"name": "salt",
						"type": "uint256"
					},
					{
						"name": "makerAssetData",
						"type": "bytes"
					},
					{
						"name": "takerAssetData",
						"type": "bytes"
					}
				],
				"name": "order",
				"type": "tuple"
			},
			{
				"name": "signature",
				"type": "bytes"
			},
			{
				"name": "amountToConvert_Bancor",
				"type": "uint256"
			}
		],
		"name": "trade_buyOnBancorSellOn0xv2",
		"outputs": [],
		"payable": false,
		"stateMutability": "nonpayable",
		"type": "function"
	},
	{
		"constant": false,
		"inputs": [
			{
				"name": "amount",
				"type": "uint256"
			}
		],
		"name": "withdrawEther",
		"outputs": [],
		"payable": false,
		"stateMutability": "nonpayable",
		"type": "function"
	},
	{
		"constant": false,
		"inputs": [
			{
				"name": "zrxV2ExchangeContract",
				"type": "address"
			},
			{
				"components": [
					{
						"name": "makerAddress",
						"type": "address"
					},
					{
						"name": "takerAddress",
						"type": "address"
					},
					{
						"name": "feeRecipientAddress",
						"type": "address"
					},
					{
						"name": "senderAddress",
						"type": "address"
					},
					{
						"name": "makerAssetAmount",
						"type": "uint256"
					},
					{
						"name": "takerAssetAmount",
						"type": "uint256"
					},
					{
						"name": "makerFee",
						"type": "uint256"
					},
					{
						"name": "takerFee",
						"type": "uint256"
					},
					{
						"name": "expirationTimeSeconds",
						"type": "uint256"
					},
					{
						"name": "salt",
						"type": "uint256"
					},
					{
						"name": "makerAssetData",
						"type": "bytes"
					},
					{
						"name": "takerAssetData",
						"type": "bytes"
					}
				],
				"name": "order",
				"type": "tuple"
			},
			{
				"name": "takerAssetFillAmount",
				"type": "uint256"
			},
			{
				"name": "signature",
				"type": "bytes"
			}
		],
		"name": "tradeTokensOn0xv2",
		"outputs": [
			{
				"components": [
					{
						"name": "makerAssetFilledAmount",
						"type": "uint256"
					},
					{
						"name": "takerAssetFilledAmount",
						"type": "uint256"
					},
					{
						"name": "makerFeePaid",
						"type": "uint256"
					},
					{
						"name": "takerFeePaid",
						"type": "uint256"
					}
				],
				"name": "fillResults",
				"type": "tuple"
			}
		],
		"payable": false,
		"stateMutability": "nonpayable",
		"type": "function"
	},
	{
		"constant": false,
		"inputs": [
			{
				"name": "bancorConverterContract",
				"type": "address"
			},
			{
				"name": "kyberProxyContract",
				"type": "address"
			},
			{
				"name": "path_Bancor",
				"type": "address[]"
			},
			{
				"name": "path_Kyber",
				"type": "address[]"
			},
			{
				"name": "amountToConvert_Kyber",
				"type": "uint256"
			}
		],
		"name": "trade_buyOnKyberSellOnBancor",
		"outputs": [],
		"payable": false,
		"stateMutability": "nonpayable",
		"type": "function"
	},
	{
		"constant": false,
		"inputs": [
			{
				"name": "user",
				"type": "address"
			}
		],
		"name": "whitelistUser",
		"outputs": [],
		"payable": false,
		"stateMutability": "nonpayable",
		"type": "function"
	},
	{
		"constant": false,
		"inputs": [
			{
				"name": "wethContract",
				"type": "address"
			},
			{
				"name": "amount",
				"type": "uint256"
			}
		],
		"name": "wrapEther",
		"outputs": [],
		"payable": true,
		"stateMutability": "payable",
		"type": "function"
	},
	{
		"constant": false,
		"inputs": [
			{
				"name": "bancorConverterContract",
				"type": "address"
			},
			{
				"name": "zrxV2ExchangeContract",
				"type": "address"
			},
			{
				"name": "wethContract",
				"type": "address"
			},
			{
				"name": "path_Bancor",
				"type": "address[]"
			},
			{
				"components": [
					{
						"name": "makerAddress",
						"type": "address"
					},
					{
						"name": "takerAddress",
						"type": "address"
					},
					{
						"name": "feeRecipientAddress",
						"type": "address"
					},
					{
						"name": "senderAddress",
						"type": "address"
					},
					{
						"name": "makerAssetAmount",
						"type": "uint256"
					},
					{
						"name": "takerAssetAmount",
						"type": "uint256"
					},
					{
						"name": "makerFee",
						"type": "uint256"
					},
					{
						"name": "takerFee",
						"type": "uint256"
					},
					{
						"name": "expirationTimeSeconds",
						"type": "uint256"
					},
					{
						"name": "salt",
						"type": "uint256"
					},
					{
						"name": "makerAssetData",
						"type": "bytes"
					},
					{
						"name": "takerAssetData",
						"type": "bytes"
					}
				],
				"name": "order",
				"type": "tuple"
			},
			{
				"name": "signature",
				"type": "bytes"
			},
			{
				"name": "amountToConvert_0xv2",
				"type": "uint256"
			}
		],
		"name": "trade_buyOn0xv2SellOnBancor",
		"outputs": [],
		"payable": false,
		"stateMutability": "nonpayable",
		"type": "function"
	},
	{
		"constant": false,
		"inputs": [
			{
				"name": "msgValue",
				"type": "uint256"
			},
			{
				"name": "bancorConverterContract",
				"type": "address"
			},
			{
				"name": "_path",
				"type": "address[]"
			},
			{
				"name": "_amount",
				"type": "uint256"
			},
			{
				"name": "_minReturn",
				"type": "uint256"
			},
			{
				"name": "_block",
				"type": "uint256"
			},
			{
				"name": "_v",
				"type": "uint8"
			},
			{
				"name": "_r",
				"type": "bytes32"
			},
			{
				"name": "_s",
				"type": "bytes32"
			}
		],
		"name": "tradeTokensOnBancor",
		"outputs": [
			{
				"name": "",
				"type": "uint256"
			}
		],
		"payable": false,
		"stateMutability": "nonpayable",
		"type": "function"
	},
	{
		"constant": false,
		"inputs": [
			{
				"name": "bancorConverterContract",
				"type": "address"
			},
			{
				"name": "kyberProxyContract",
				"type": "address"
			},
			{
				"name": "addressArray",
				"type": "address[]"
			},
			{
				"name": "path_Bancor",
				"type": "address[]"
			},
			{
				"name": "path_Kyber",
				"type": "address[]"
			},
			{
				"name": "amountToConvert_Bancor",
				"type": "uint256"
			}
		],
		"name": "tradeSafe_buyOnBancorSellOnKyber",
		"outputs": [],
		"payable": false,
		"stateMutability": "nonpayable",
		"type": "function"
	},
	{
		"constant": false,
		"inputs": [
			{
				"name": "token",
				"type": "address"
			},
			{
				"name": "amount",
				"type": "uint256"
			}
		],
		"name": "withdrawToken",
		"outputs": [],
		"payable": false,
		"stateMutability": "nonpayable",
		"type": "function"
	},
	{
		"constant": false,
		"inputs": [
			{
				"name": "wethContract",
				"type": "address"
			},
			{
				"name": "amount",
				"type": "uint256"
			}
		],
		"name": "unwrapEther",
		"outputs": [],
		"payable": false,
		"stateMutability": "nonpayable",
		"type": "function"
	},
	{
		"constant": false,
		"inputs": [
			{
				"name": "ninjaUtilityAddress",
				"type": "address"
			}
		],
		"name": "setNinjaUtilityAddress",
		"outputs": [],
		"payable": false,
		"stateMutability": "nonpayable",
		"type": "function"
	},
	{
		"constant": false,
		"inputs": [
			{
				"name": "_token",
				"type": "address"
			},
			{
				"name": "_spender",
				"type": "address"
			},
			{
				"name": "_value",
				"type": "uint256"
			}
		],
		"name": "ensureAllowance",
		"outputs": [],
		"payable": false,
		"stateMutability": "nonpayable",
		"type": "function"
	},
	{
		"constant": false,
		"inputs": [
			{
				"name": "msgValue",
				"type": "uint256"
			},
			{
				"name": "kyberProxyContract",
				"type": "address"
			},
			{
				"name": "src",
				"type": "address"
			},
			{
				"name": "srcAmount",
				"type": "uint256"
			},
			{
				"name": "dest",
				"type": "address"
			},
			{
				"name": "maxDestAmount",
				"type": "uint256"
			},
			{
				"name": "minConversionRate",
				"type": "uint256"
			},
			{
				"name": "walletId",
				"type": "address"
			}
		],
		"name": "tradeTokensOnKyber",
		"outputs": [
			{
				"name": "",
				"type": "uint256"
			}
		],
		"payable": false,
		"stateMutability": "nonpayable",
		"type": "function"
	},
	{
		"constant": true,
		"inputs": [],
		"name": "Version",
		"outputs": [
			{
				"name": "",
				"type": "string"
			}
		],
		"payable": false,
		"stateMutability": "view",
		"type": "function"
	},
	{
		"constant": false,
		"inputs": [
			{
				"name": "bancorConverterContract",
				"type": "address"
			},
			{
				"name": "kyberProxyContract",
				"type": "address"
			},
			{
				"name": "path_Bancor",
				"type": "address[]"
			},
			{
				"name": "path_Kyber",
				"type": "address[]"
			},
			{
				"name": "amountToConvert_Bancor",
				"type": "uint256"
			}
		],
		"name": "trade_buyOnBancorSellOnKyber",
		"outputs": [],
		"payable": false,
		"stateMutability": "nonpayable",
		"type": "function"
	},
	{
		"constant": false,
		"inputs": [],
		"name": "deposit",
		"outputs": [],
		"payable": true,
		"stateMutability": "payable",
		"type": "function"
	},
	{
		"constant": false,
		"inputs": [
			{
				"name": "user",
				"type": "address"
			}
		],
		"name": "blacklistUser",
		"outputs": [],
		"payable": false,
		"stateMutability": "nonpayable",
		"type": "function"
	},
	{
		"constant": false,
		"inputs": [
			{
				"name": "bancorConverterContract",
				"type": "address"
			},
			{
				"name": "zrxV2ExchangeContract",
				"type": "address"
			},
			{
				"name": "wethContract",
				"type": "address"
			},
			{
				"name": "addressArray",
				"type": "address[]"
			},
			{
				"name": "fromAssetData",
				"type": "bytes"
			},
			{
				"name": "toAssetData",
				"type": "bytes"
			},
			{
				"name": "path_Bancor",
				"type": "address[]"
			},
			{
				"components": [
					{
						"name": "makerAddress",
						"type": "address"
					},
					{
						"name": "takerAddress",
						"type": "address"
					},
					{
						"name": "feeRecipientAddress",
						"type": "address"
					},
					{
						"name": "senderAddress",
						"type": "address"
					},
					{
						"name": "makerAssetAmount",
						"type": "uint256"
					},
					{
						"name": "takerAssetAmount",
						"type": "uint256"
					},
					{
						"name": "makerFee",
						"type": "uint256"
					},
					{
						"name": "takerFee",
						"type": "uint256"
					},
					{
						"name": "expirationTimeSeconds",
						"type": "uint256"
					},
					{
						"name": "salt",
						"type": "uint256"
					},
					{
						"name": "makerAssetData",
						"type": "bytes"
					},
					{
						"name": "takerAssetData",
						"type": "bytes"
					}
				],
				"name": "order",
				"type": "tuple"
			},
			{
				"name": "signature",
				"type": "bytes"
			},
			{
				"name": "amountToConvert_0xv2",
				"type": "uint256"
			}
		],
		"name": "tradeSafe_buyOn0xv2SellOnBancor",
		"outputs": [],
		"payable": false,
		"stateMutability": "nonpayable",
		"type": "function"
	},
	{
		"inputs": [],
		"payable": true,
		"stateMutability": "payable",
		"type": "constructor"
	},
	{
		"payable": true,
		"stateMutability": "payable",
		"type": "fallback"
	},
	{
		"anonymous": false,
		"inputs": [
			{
				"indexed": false,
				"name": "code",
				"type": "uint8"
			},
			{
				"indexed": false,
				"name": "amountToConvert_ETH",
				"type": "uint256"
			},
			{
				"indexed": false,
				"name": "expectedReturn_ETH",
				"type": "uint256"
			},
			{
				"indexed": false,
				"name": "expectedRate",
				"type": "uint256"
			},
			{
				"indexed": false,
				"name": "expectedReturn_Tokens",
				"type": "uint256"
			},
			{
				"indexed": false,
				"name": "expectedReturn_BNT",
				"type": "uint256"
			}
		],
		"name": "Event_Trade_BuyOnBancorSellOnKyber",
		"type": "event"
	},
	{
		"anonymous": false,
		"inputs": [
			{
				"indexed": false,
				"name": "code",
				"type": "uint8"
			},
			{
				"indexed": false,
				"name": "amountToConvert_ETH",
				"type": "uint256"
			},
			{
				"indexed": false,
				"name": "expectedReturn_ETH",
				"type": "uint256"
			},
			{
				"indexed": false,
				"name": "expectedReturn_BNT",
				"type": "uint256"
			},
			{
				"indexed": false,
				"name": "expectedReturn_Tokens",
				"type": "uint256"
			},
			{
				"indexed": false,
				"name": "expectedRate",
				"type": "uint256"
			}
		],
		"name": "Event_Trade_BuyOnKyberSellOnBancor",
		"type": "event"
	},
	{
		"anonymous": false,
		"inputs": [
			{
				"indexed": false,
				"name": "code",
				"type": "uint8"
			},
			{
				"indexed": false,
				"name": "amountToConvert_ETH",
				"type": "uint256"
			},
			{
				"indexed": false,
				"name": "expectedReturn_ETH",
				"type": "uint256"
			},
			{
				"indexed": false,
				"name": "expectedReturn_Tokens",
				"type": "uint256"
			},
			{
				"indexed": false,
				"name": "expectedReturn_BNT",
				"type": "uint256"
			}
		],
		"name": "Event_Trade_BuyOnBancorSellOn0xv2",
		"type": "event"
	},
	{
		"anonymous": false,
		"inputs": [
			{
				"indexed": false,
				"name": "code",
				"type": "uint8"
			},
			{
				"indexed": false,
				"name": "amountToConvert_ETH",
				"type": "uint256"
			},
			{
				"indexed": false,
				"name": "expectedReturn_ETH",
				"type": "uint256"
			},
			{
				"indexed": false,
				"name": "expectedReturn_BNT",
				"type": "uint256"
			},
			{
				"indexed": false,
				"name": "expectedReturn_Tokens",
				"type": "uint256"
			}
		],
		"name": "Event_Trade_BuyOn0xv2SellOnBancor",
		"type": "event"
	}
]